[
  {
    "id": 1,
    "title": "Deploying Angular 2 Website to DigitalOcean Droplet",
    "date": "2017-9-20",
    "snippet": "From confusion to functional website running on Node.js behind Nginx on Ubuntu Droplet.",
    "content-file": "hosting-setup.html",
    "imgUrl": "/assets/images/jd_logo_white.svg",
    "categories": ["angular", "coding", "web"]
  }
]
